{
  "coc.preferences.formatOnSaveFiletypes": [
    "css",
    "markdown",
    "javascript",
    "graphql",
    "html",
    "yaml",
    "json",
    "python"
  ],
  // python config
  "python.linting.enabled": true,
  "python.linting.pylintEnabled": true,
  "snippets.ultisnips.directories": [
    "UltiSnips",
    "~/.config/nvim/utils/snips"
  ]
  // explorer
  "explorer.width": 30,
  "explorer.icon.enableNerdfont": true,
  "explorer.previewAction.onHover": true,
  "explorer.keyMappings.global": {
    "<cr>": [
      "expandable?",
      "expand",
      "open"
    ],
    "v": "open:vsplit"

  " Explorer
let g:coc_explorer_global_presets = {
\   '.vim': {
\     'root-uri': '~/.vim',
\
      },
\   'tab': {
\     'position': 'tab',
\     'quit-on-open': v: true,
\
      },
\   'floating': {
\     'position': 'floating',
\     'open-action-strategy': 'sourceWindow',
\
      },
\   'floatingTop': {
\     'position': 'floating',
\     'floating-position': 'center-top',
\     'open-action-strategy': 'sourceWindow',
\
      },
\   'floatingLeftside': {
\     'position': 'floating',
\     'floating-position': 'left-center',
\     'floating-width': 50,
\     'open-action-strategy': 'sourceWindow',
\
      },
\   'floatingRightside': {
\     'position': 'floating',
\     'floating-position': 'right-center',
\     'floating-width': 50,
\     'open-action-strategy': 'sourceWindow',
\
      },
\   'simplify': {
\     'file-child-template': '[selection | clip | 1
        ] [indent
        ][icon | 1
        ] [filename omitCenter 1
        ]'
\
      }
\
    }

nmap <M>r :CocCommand explorer<CR>
nmap <M>rf :CocCommand explorer --preset floating<CR>
autocmd BufEnter * if (winnr("$") == 1 && &filetype == 'coc-explorer') | q | endif
  }
